<?xml version='1.0' encoding='UTF-8'?>
<!-- Created with Inkscape (http://www.inkscape.org/) and export_objects.py -->
<svg xmlns:cc="http://creativecommons.org/ns#" xmlns:dc="http://purl.org/dc/elements/1.1/" xmlns:inkscape="http://www.inkscape.org/namespaces/inkscape" xmlns:rdf="http://www.w3.org/1999/02/22-rdf-syntax-ns#" xmlns:sodipodi="http://sodipodi.sourceforge.net/DTD/sodipodi-0.dtd" xmlns:xlink="http://www.w3.org/1999/xlink" xmlns="http://www.w3.org/2000/svg" version="1.1" id="svg1" width="16" height="16" viewBox="0 0 16 16" sodipodi:docname="object-rows-symbolic.svg"><sodipodi:namedview objecttolerance="10" gridtolerance="10" guidetolerance="10" id="namedview" showgrid="true" inkscape:zoom="0.6002936" inkscape:cx="732.67439" inkscape:cy="-567.94603" inkscape:window-width="1920" inkscape:window-height="1016" inkscape:window-x="0" inkscape:window-y="27" inkscape:window-maximized="1" inkscape:current-layer="layer1">
    <inkscape:grid type="xygrid" id="grid"/>
  </sodipodi:namedview>
  <g transform="rotate(90,643.68112,115.68106)" inkscape:label="00246" id="object-rows">
      <path inkscape:connector-curvature="0" id="rect23248" d="m 528.46967,743.36218 h 15.06066 c 0.2602,0 0.46967,0.20948 0.46967,0.46967 v 15.06066 c 0,0.2602 -0.20947,0.46967 -0.46967,0.46967 h -15.06066 c -0.2602,0 -0.46967,-0.20947 -0.46967,-0.46967 v -15.06066 c 0,-0.26019 0.20947,-0.46967 0.46967,-0.46967 z" style="opacity:0;fill:none"/>
      <path inkscape:connector-curvature="0" id="rect23250" d="m 531,745.36218 h 2 v 12 h -2 z" style="opacity:1"/>
      <path inkscape:connector-curvature="0" id="rect23252" d="m 535,745.36218 h 2 v 12 h -2 z" style="opacity:1"/>
      <path inkscape:connector-curvature="0" id="rect23254" d="m 539,745.36218 h 2 v 12 h -2 z" style="opacity:1"/>
    </g>
    </svg>
